-- Merging decision tree log ---
application
INJECTED from /Users/anuragsingh/Documents/GitHub/wallet-transaction/android/app/src/main/AndroidManifest.xml:5:5-34:19
MERGED from [:url_launcher_android] /Users/anuragsingh/Documents/GitHub/wallet-transaction/build/url_launcher_android/intermediates/merged_manifest/debug/AndroidManifest.xml:9:5-14:19
MERGED from [:url_launcher_android] /Users/anuragsingh/Documents/GitHub/wallet-transaction/build/url_launcher_android/intermediates/merged_manifest/debug/AndroidManifest.xml:9:5-14:19
MERGED from [androidx.window:window:1.0.0-beta04] /Users/anuragsingh/.gradle/caches/transforms-3/49bc944d29f70d45aa5add8e43e3247e/transformed/jetified-window-1.0.0-beta04/AndroidManifest.xml:24:5-31:19
MERGED from [androidx.window:window:1.0.0-beta04] /Users/anuragsingh/.gradle/caches/transforms-3/49bc944d29f70d45aa5add8e43e3247e/transformed/jetified-window-1.0.0-beta04/AndroidManifest.xml:24:5-31:19
MERGED from [androidx.core:core:1.6.0] /Users/anuragsingh/.gradle/caches/transforms-3/acbce933e4b464a5224ed377a62db1f5/transformed/core-1.6.0/AndroidManifest.xml:24:5-89
MERGED from [androidx.core:core:1.6.0] /Users/anuragsingh/.gradle/caches/transforms-3/acbce933e4b464a5224ed377a62db1f5/transformed/core-1.6.0/AndroidManifest.xml:24:5-89
MERGED from [androidx.versionedparcelable:versionedparcelable:1.1.1] /Users/anuragsingh/.gradle/caches/transforms-3/c6290d38a27dcf8d064fa9cefcb89071/transformed/versionedparcelable-1.1.1/AndroidManifest.xml:24:5-25:19
MERGED from [androidx.versionedparcelable:versionedparcelable:1.1.1] /Users/anuragsingh/.gradle/caches/transforms-3/c6290d38a27dcf8d064fa9cefcb89071/transformed/versionedparcelable-1.1.1/AndroidManifest.xml:24:5-25:19
	android:appComponentFactory
		ADDED from [androidx.core:core:1.6.0] /Users/anuragsingh/.gradle/caches/transforms-3/acbce933e4b464a5224ed377a62db1f5/transformed/core-1.6.0/AndroidManifest.xml:24:18-86
	android:name
		INJECTED from /Users/anuragsingh/Documents/GitHub/wallet-transaction/android/app/src/main/AndroidManifest.xml
manifest
ADDED from /Users/anuragsingh/Documents/GitHub/wallet-transaction/android/app/src/main/AndroidManifest.xml:1:1-35:12
INJECTED from /Users/anuragsingh/Documents/GitHub/wallet-transaction/android/app/src/main/AndroidManifest.xml:1:1-35:12
INJECTED from /Users/anuragsingh/Documents/GitHub/wallet-transaction/android/app/src/main/AndroidManifest.xml:1:1-35:12
INJECTED from /Users/anuragsingh/Documents/GitHub/wallet-transaction/android/app/src/main/AndroidManifest.xml:1:1-35:12
MERGED from /Users/anuragsingh/Documents/GitHub/wallet-transaction/android/app/src/main/AndroidManifest.xml:1:1-35:12
MERGED from [:sqflite] /Users/anuragsingh/Documents/GitHub/wallet-transaction/build/sqflite/intermediates/merged_manifest/debug/AndroidManifest.xml:2:1-9:12
MERGED from [:url_launcher_android] /Users/anuragsingh/Documents/GitHub/wallet-transaction/build/url_launcher_android/intermediates/merged_manifest/debug/AndroidManifest.xml:2:1-16:12
MERGED from [:path_provider_android] /Users/anuragsingh/Documents/GitHub/wallet-transaction/build/path_provider_android/intermediates/merged_manifest/debug/AndroidManifest.xml:2:1-9:12
MERGED from [androidx.window:window-java:1.0.0-beta04] /Users/anuragsingh/.gradle/caches/transforms-3/246793f755122fe14a5802655438cb75/transformed/jetified-window-java-1.0.0-beta04/AndroidManifest.xml:17:1-23:12
MERGED from [androidx.window:window:1.0.0-beta04] /Users/anuragsingh/.gradle/caches/transforms-3/49bc944d29f70d45aa5add8e43e3247e/transformed/jetified-window-1.0.0-beta04/AndroidManifest.xml:17:1-33:12
MERGED from [androidx.fragment:fragment:1.1.0] /Users/anuragsingh/.gradle/caches/transforms-3/0e0e1a382b52c0572988a1c50e96d2f7/transformed/fragment-1.1.0/AndroidManifest.xml:17:1-24:12
MERGED from [androidx.viewpager:viewpager:1.0.0] /Users/anuragsingh/.gradle/caches/transforms-3/045d2e69ed718df502093495707de7d0/transformed/viewpager-1.0.0/AndroidManifest.xml:17:1-22:12
MERGED from [androidx.loader:loader:1.0.0] /Users/anuragsingh/.gradle/caches/transforms-3/906f41b23948e23cf276f1b1ba5ed41e/transformed/loader-1.0.0/AndroidManifest.xml:17:1-22:12
MERGED from [androidx.activity:activity:1.0.0] /Users/anuragsingh/.gradle/caches/transforms-3/8fa8bdf086632123dcb3f9226ab7b2b9/transformed/jetified-activity-1.0.0/AndroidManifest.xml:17:1-24:12
MERGED from [androidx.customview:customview:1.0.0] /Users/anuragsingh/.gradle/caches/transforms-3/d411e96186971239cc9320701a4aa95b/transformed/customview-1.0.0/AndroidManifest.xml:17:1-22:12
MERGED from [androidx.core:core:1.6.0] /Users/anuragsingh/.gradle/caches/transforms-3/acbce933e4b464a5224ed377a62db1f5/transformed/core-1.6.0/AndroidManifest.xml:17:1-26:12
MERGED from [androidx.lifecycle:lifecycle-runtime:2.2.0] /Users/anuragsingh/.gradle/caches/transforms-3/025f0ebb178f72f967988fd890b9b9c6/transformed/lifecycle-runtime-2.2.0/AndroidManifest.xml:17:1-24:12
MERGED from [androidx.savedstate:savedstate:1.0.0] /Users/anuragsingh/.gradle/caches/transforms-3/61be2594815516b1d798e8de806d8dcb/transformed/jetified-savedstate-1.0.0/AndroidManifest.xml:17:1-24:12
MERGED from [androidx.lifecycle:lifecycle-livedata:2.0.0] /Users/anuragsingh/.gradle/caches/transforms-3/4d571c0d2420042bbe5204d312a62bb2/transformed/lifecycle-livedata-2.0.0/AndroidManifest.xml:17:1-22:12
MERGED from [androidx.lifecycle:lifecycle-livedata-core:2.0.0] /Users/anuragsingh/.gradle/caches/transforms-3/ab7ce279708bbb9e6bfa95c7580f1bb9/transformed/lifecycle-livedata-core-2.0.0/AndroidManifest.xml:17:1-22:12
MERGED from [androidx.tracing:tracing:1.0.0] /Users/anuragsingh/.gradle/caches/transforms-3/9a15d0431946b4658756ca271d093b65/transformed/jetified-tracing-1.0.0/AndroidManifest.xml:17:1-24:12
MERGED from [androidx.arch.core:core-runtime:2.0.0] /Users/anuragsingh/.gradle/caches/transforms-3/57003bf956257e647aeaeb419a007e24/transformed/core-runtime-2.0.0/AndroidManifest.xml:17:1-22:12
MERGED from [androidx.versionedparcelable:versionedparcelable:1.1.1] /Users/anuragsingh/.gradle/caches/transforms-3/c6290d38a27dcf8d064fa9cefcb89071/transformed/versionedparcelable-1.1.1/AndroidManifest.xml:17:1-27:12
MERGED from [androidx.lifecycle:lifecycle-viewmodel:2.1.0] /Users/anuragsingh/.gradle/caches/transforms-3/ed9734c73cdec898947618088fbe87b0/transformed/lifecycle-viewmodel-2.1.0/AndroidManifest.xml:17:1-22:12
MERGED from [androidx.annotation:annotation-experimental:1.1.0] /Users/anuragsingh/.gradle/caches/transforms-3/58e3540d7f5a5bac6af9a8f8fab44363/transformed/jetified-annotation-experimental-1.1.0/AndroidManifest.xml:17:1-24:12
INJECTED from /Users/anuragsingh/Documents/GitHub/wallet-transaction/android/app/src/debug/AndroidManifest.xml:1:1-8:12
INJECTED from /Users/anuragsingh/Documents/GitHub/wallet-transaction/android/app/src/debug/AndroidManifest.xml:1:1-8:12
INJECTED from /Users/anuragsingh/Documents/GitHub/wallet-transaction/android/app/src/debug/AndroidManifest.xml:1:1-8:12
	package
		ADDED from /Users/anuragsingh/Documents/GitHub/wallet-transaction/android/app/src/main/AndroidManifest.xml:2:5-40
		INJECTED from /Users/anuragsingh/Documents/GitHub/wallet-transaction/android/app/src/main/AndroidManifest.xml
		INJECTED from /Users/anuragsingh/Documents/GitHub/wallet-transaction/android/app/src/debug/AndroidManifest.xml
	android:versionName
		INJECTED from /Users/anuragsingh/Documents/GitHub/wallet-transaction/android/app/src/main/AndroidManifest.xml
		ADDED from /Users/anuragsingh/Documents/GitHub/wallet-transaction/android/app/src/main/AndroidManifest.xml:1:1-35:12
		INJECTED from /Users/anuragsingh/Documents/GitHub/wallet-transaction/android/app/src/debug/AndroidManifest.xml
	android:versionCode
		INJECTED from /Users/anuragsingh/Documents/GitHub/wallet-transaction/android/app/src/main/AndroidManifest.xml
		ADDED from /Users/anuragsingh/Documents/GitHub/wallet-transaction/android/app/src/main/AndroidManifest.xml:1:1-35:12
		INJECTED from /Users/anuragsingh/Documents/GitHub/wallet-transaction/android/app/src/debug/AndroidManifest.xml
	xmlns:android
		ADDED from /Users/anuragsingh/Documents/GitHub/wallet-transaction/android/app/src/main/AndroidManifest.xml:1:11-69
uses-permission#android.permission.INTERNET
ADDED from /Users/anuragsingh/Documents/GitHub/wallet-transaction/android/app/src/main/AndroidManifest.xml:4:5-67
MERGED from /Users/anuragsingh/Documents/GitHub/wallet-transaction/android/app/src/main/AndroidManifest.xml:4:5-67
MERGED from /Users/anuragsingh/Documents/GitHub/wallet-transaction/android/app/src/main/AndroidManifest.xml:4:5-67
	android:name
		ADDED from /Users/anuragsingh/Documents/GitHub/wallet-transaction/android/app/src/main/AndroidManifest.xml:4:22-64
uses-sdk
INJECTED from /Users/anuragsingh/Documents/GitHub/wallet-transaction/android/app/src/main/AndroidManifest.xml reason: use-sdk injection requested
INJECTED from /Users/anuragsingh/Documents/GitHub/wallet-transaction/android/app/src/main/AndroidManifest.xml
INJECTED from /Users/anuragsingh/Documents/GitHub/wallet-transaction/android/app/src/main/AndroidManifest.xml
MERGED from [:sqflite] /Users/anuragsingh/Documents/GitHub/wallet-transaction/build/sqflite/intermediates/merged_manifest/debug/AndroidManifest.xml:5:5-7:41
MERGED from [:sqflite] /Users/anuragsingh/Documents/GitHub/wallet-transaction/build/sqflite/intermediates/merged_manifest/debug/AndroidManifest.xml:5:5-7:41
MERGED from [:url_launcher_android] /Users/anuragsingh/Documents/GitHub/wallet-transaction/build/url_launcher_android/intermediates/merged_manifest/debug/AndroidManifest.xml:5:5-7:41
MERGED from [:url_launcher_android] /Users/anuragsingh/Documents/GitHub/wallet-transaction/build/url_launcher_android/intermediates/merged_manifest/debug/AndroidManifest.xml:5:5-7:41
MERGED from [:path_provider_android] /Users/anuragsingh/Documents/GitHub/wallet-transaction/build/path_provider_android/intermediates/merged_manifest/debug/AndroidManifest.xml:5:5-7:41
MERGED from [:path_provider_android] /Users/anuragsingh/Documents/GitHub/wallet-transaction/build/path_provider_android/intermediates/merged_manifest/debug/AndroidManifest.xml:5:5-7:41
MERGED from [androidx.window:window-java:1.0.0-beta04] /Users/anuragsingh/.gradle/caches/transforms-3/246793f755122fe14a5802655438cb75/transformed/jetified-window-java-1.0.0-beta04/AndroidManifest.xml:19:5-21:41
MERGED from [androidx.window:window-java:1.0.0-beta04] /Users/anuragsingh/.gradle/caches/transforms-3/246793f755122fe14a5802655438cb75/transformed/jetified-window-java-1.0.0-beta04/AndroidManifest.xml:19:5-21:41
MERGED from [androidx.window:window:1.0.0-beta04] /Users/anuragsingh/.gradle/caches/transforms-3/49bc944d29f70d45aa5add8e43e3247e/transformed/jetified-window-1.0.0-beta04/AndroidManifest.xml:20:5-22:41
MERGED from [androidx.window:window:1.0.0-beta04] /Users/anuragsingh/.gradle/caches/transforms-3/49bc944d29f70d45aa5add8e43e3247e/transformed/jetified-window-1.0.0-beta04/AndroidManifest.xml:20:5-22:41
MERGED from [androidx.fragment:fragment:1.1.0] /Users/anuragsingh/.gradle/caches/transforms-3/0e0e1a382b52c0572988a1c50e96d2f7/transformed/fragment-1.1.0/AndroidManifest.xml:20:5-22:41
MERGED from [androidx.fragment:fragment:1.1.0] /Users/anuragsingh/.gradle/caches/transforms-3/0e0e1a382b52c0572988a1c50e96d2f7/transformed/fragment-1.1.0/AndroidManifest.xml:20:5-22:41
MERGED from [androidx.viewpager:viewpager:1.0.0] /Users/anuragsingh/.gradle/caches/transforms-3/045d2e69ed718df502093495707de7d0/transformed/viewpager-1.0.0/AndroidManifest.xml:20:5-44
MERGED from [androidx.viewpager:viewpager:1.0.0] /Users/anuragsingh/.gradle/caches/transforms-3/045d2e69ed718df502093495707de7d0/transformed/viewpager-1.0.0/AndroidManifest.xml:20:5-44
MERGED from [androidx.loader:loader:1.0.0] /Users/anuragsingh/.gradle/caches/transforms-3/906f41b23948e23cf276f1b1ba5ed41e/transformed/loader-1.0.0/AndroidManifest.xml:20:5-44
MERGED from [androidx.loader:loader:1.0.0] /Users/anuragsingh/.gradle/caches/transforms-3/906f41b23948e23cf276f1b1ba5ed41e/transformed/loader-1.0.0/AndroidManifest.xml:20:5-44
MERGED from [androidx.activity:activity:1.0.0] /Users/anuragsingh/.gradle/caches/transforms-3/8fa8bdf086632123dcb3f9226ab7b2b9/transformed/jetified-activity-1.0.0/AndroidManifest.xml:20:5-22:41
MERGED from [androidx.activity:activity:1.0.0] /Users/anuragsingh/.gradle/caches/transforms-3/8fa8bdf086632123dcb3f9226ab7b2b9/transformed/jetified-activity-1.0.0/AndroidManifest.xml:20:5-22:41
MERGED from [androidx.customview:customview:1.0.0] /Users/anuragsingh/.gradle/caches/transforms-3/d411e96186971239cc9320701a4aa95b/transformed/customview-1.0.0/AndroidManifest.xml:20:5-44
MERGED from [androidx.customview:customview:1.0.0] /Users/anuragsingh/.gradle/caches/transforms-3/d411e96186971239cc9320701a4aa95b/transformed/customview-1.0.0/AndroidManifest.xml:20:5-44
MERGED from [androidx.core:core:1.6.0] /Users/anuragsingh/.gradle/caches/transforms-3/acbce933e4b464a5224ed377a62db1f5/transformed/core-1.6.0/AndroidManifest.xml:20:5-22:41
MERGED from [androidx.core:core:1.6.0] /Users/anuragsingh/.gradle/caches/transforms-3/acbce933e4b464a5224ed377a62db1f5/transformed/core-1.6.0/AndroidManifest.xml:20:5-22:41
MERGED from [androidx.lifecycle:lifecycle-runtime:2.2.0] /Users/anuragsingh/.gradle/caches/transforms-3/025f0ebb178f72f967988fd890b9b9c6/transformed/lifecycle-runtime-2.2.0/AndroidManifest.xml:20:5-22:41
MERGED from [androidx.lifecycle:lifecycle-runtime:2.2.0] /Users/anuragsingh/.gradle/caches/transforms-3/025f0ebb178f72f967988fd890b9b9c6/transformed/lifecycle-runtime-2.2.0/AndroidManifest.xml:20:5-22:41
MERGED from [androidx.savedstate:savedstate:1.0.0] /Users/anuragsingh/.gradle/caches/transforms-3/61be2594815516b1d798e8de806d8dcb/transformed/jetified-savedstate-1.0.0/AndroidManifest.xml:20:5-22:41
MERGED from [androidx.savedstate:savedstate:1.0.0] /Users/anuragsingh/.gradle/caches/transforms-3/61be2594815516b1d798e8de806d8dcb/transformed/jetified-savedstate-1.0.0/AndroidManifest.xml:20:5-22:41
MERGED from [androidx.lifecycle:lifecycle-livedata:2.0.0] /Users/anuragsingh/.gradle/caches/transforms-3/4d571c0d2420042bbe5204d312a62bb2/transformed/lifecycle-livedata-2.0.0/AndroidManifest.xml:20:5-44
MERGED from [androidx.lifecycle:lifecycle-livedata:2.0.0] /Users/anuragsingh/.gradle/caches/transforms-3/4d571c0d2420042bbe5204d312a62bb2/transformed/lifecycle-livedata-2.0.0/AndroidManifest.xml:20:5-44
MERGED from [androidx.lifecycle:lifecycle-livedata-core:2.0.0] /Users/anuragsingh/.gradle/caches/transforms-3/ab7ce279708bbb9e6bfa95c7580f1bb9/transformed/lifecycle-livedata-core-2.0.0/AndroidManifest.xml:20:5-44
MERGED from [androidx.lifecycle:lifecycle-livedata-core:2.0.0] /Users/anuragsingh/.gradle/caches/transforms-3/ab7ce279708bbb9e6bfa95c7580f1bb9/transformed/lifecycle-livedata-core-2.0.0/AndroidManifest.xml:20:5-44
MERGED from [androidx.tracing:tracing:1.0.0] /Users/anuragsingh/.gradle/caches/transforms-3/9a15d0431946b4658756ca271d093b65/transformed/jetified-tracing-1.0.0/AndroidManifest.xml:20:5-22:41
MERGED from [androidx.tracing:tracing:1.0.0] /Users/anuragsingh/.gradle/caches/transforms-3/9a15d0431946b4658756ca271d093b65/transformed/jetified-tracing-1.0.0/AndroidManifest.xml:20:5-22:41
MERGED from [androidx.arch.core:core-runtime:2.0.0] /Users/anuragsingh/.gradle/caches/transforms-3/57003bf956257e647aeaeb419a007e24/transformed/core-runtime-2.0.0/AndroidManifest.xml:20:5-44
MERGED from [androidx.arch.core:core-runtime:2.0.0] /Users/anuragsingh/.gradle/caches/transforms-3/57003bf956257e647aeaeb419a007e24/transformed/core-runtime-2.0.0/AndroidManifest.xml:20:5-44
MERGED from [androidx.versionedparcelable:versionedparcelable:1.1.1] /Users/anuragsingh/.gradle/caches/transforms-3/c6290d38a27dcf8d064fa9cefcb89071/transformed/versionedparcelable-1.1.1/AndroidManifest.xml:20:5-22:41
MERGED from [androidx.versionedparcelable:versionedparcelable:1.1.1] /Users/anuragsingh/.gradle/caches/transforms-3/c6290d38a27dcf8d064fa9cefcb89071/transformed/versionedparcelable-1.1.1/AndroidManifest.xml:20:5-22:41
MERGED from [androidx.lifecycle:lifecycle-viewmodel:2.1.0] /Users/anuragsingh/.gradle/caches/transforms-3/ed9734c73cdec898947618088fbe87b0/transformed/lifecycle-viewmodel-2.1.0/AndroidManifest.xml:20:5-44
MERGED from [androidx.lifecycle:lifecycle-viewmodel:2.1.0] /Users/anuragsingh/.gradle/caches/transforms-3/ed9734c73cdec898947618088fbe87b0/transformed/lifecycle-viewmodel-2.1.0/AndroidManifest.xml:20:5-44
MERGED from [androidx.annotation:annotation-experimental:1.1.0] /Users/anuragsingh/.gradle/caches/transforms-3/58e3540d7f5a5bac6af9a8f8fab44363/transformed/jetified-annotation-experimental-1.1.0/AndroidManifest.xml:20:5-22:41
MERGED from [androidx.annotation:annotation-experimental:1.1.0] /Users/anuragsingh/.gradle/caches/transforms-3/58e3540d7f5a5bac6af9a8f8fab44363/transformed/jetified-annotation-experimental-1.1.0/AndroidManifest.xml:20:5-22:41
INJECTED from /Users/anuragsingh/Documents/GitHub/wallet-transaction/android/app/src/debug/AndroidManifest.xml
INJECTED from /Users/anuragsingh/Documents/GitHub/wallet-transaction/android/app/src/debug/AndroidManifest.xml
	android:targetSdkVersion
		INJECTED from /Users/anuragsingh/Documents/GitHub/wallet-transaction/android/app/src/main/AndroidManifest.xml
		INJECTED from /Users/anuragsingh/Documents/GitHub/wallet-transaction/android/app/src/debug/AndroidManifest.xml
	android:minSdkVersion
		INJECTED from /Users/anuragsingh/Documents/GitHub/wallet-transaction/android/app/src/main/AndroidManifest.xml
		INJECTED from /Users/anuragsingh/Documents/GitHub/wallet-transaction/android/app/src/debug/AndroidManifest.xml
activity#io.flutter.plugins.urllauncher.WebViewActivity
ADDED from [:url_launcher_android] /Users/anuragsingh/Documents/GitHub/wallet-transaction/build/url_launcher_android/intermediates/merged_manifest/debug/AndroidManifest.xml:10:9-13:74
	android:exported
		ADDED from [:url_launcher_android] /Users/anuragsingh/Documents/GitHub/wallet-transaction/build/url_launcher_android/intermediates/merged_manifest/debug/AndroidManifest.xml:12:13-37
	android:theme
		ADDED from [:url_launcher_android] /Users/anuragsingh/Documents/GitHub/wallet-transaction/build/url_launcher_android/intermediates/merged_manifest/debug/AndroidManifest.xml:13:13-71
	android:name
		ADDED from [:url_launcher_android] /Users/anuragsingh/Documents/GitHub/wallet-transaction/build/url_launcher_android/intermediates/merged_manifest/debug/AndroidManifest.xml:11:13-74
uses-library#androidx.window.extensions
ADDED from [androidx.window:window:1.0.0-beta04] /Users/anuragsingh/.gradle/caches/transforms-3/49bc944d29f70d45aa5add8e43e3247e/transformed/jetified-window-1.0.0-beta04/AndroidManifest.xml:25:9-27:40
	android:required
		ADDED from [androidx.window:window:1.0.0-beta04] /Users/anuragsingh/.gradle/caches/transforms-3/49bc944d29f70d45aa5add8e43e3247e/transformed/jetified-window-1.0.0-beta04/AndroidManifest.xml:27:13-37
	android:name
		ADDED from [androidx.window:window:1.0.0-beta04] /Users/anuragsingh/.gradle/caches/transforms-3/49bc944d29f70d45aa5add8e43e3247e/transformed/jetified-window-1.0.0-beta04/AndroidManifest.xml:26:13-54
uses-library#androidx.window.sidecar
ADDED from [androidx.window:window:1.0.0-beta04] /Users/anuragsingh/.gradle/caches/transforms-3/49bc944d29f70d45aa5add8e43e3247e/transformed/jetified-window-1.0.0-beta04/AndroidManifest.xml:28:9-30:40
	android:required
		ADDED from [androidx.window:window:1.0.0-beta04] /Users/anuragsingh/.gradle/caches/transforms-3/49bc944d29f70d45aa5add8e43e3247e/transformed/jetified-window-1.0.0-beta04/AndroidManifest.xml:30:13-37
	android:name
		ADDED from [androidx.window:window:1.0.0-beta04] /Users/anuragsingh/.gradle/caches/transforms-3/49bc944d29f70d45aa5add8e43e3247e/transformed/jetified-window-1.0.0-beta04/AndroidManifest.xml:29:13-51
